1656929023477,    60.2,     2022-07-04,  12:03:43
1656929078109,    60.4,     2022-07-04,  12:04:38
1656929378952,    60.4,     2022-07-04,  12:09:38
1656929679843,    61.1,     2022-07-04,  12:14:39
1656929980673,    60.9,     2022-07-04,  12:19:40
1656930281596,    60.9,     2022-07-04,  12:24:41
1656930582446,    61.2,     2022-07-04,  12:29:42
1656931447649,    61.8,     2022-07-04,  12:44:07
1656931748572,    62.1,     2022-07-04,  12:49:08
1656932049474,    61.6,     2022-07-04,  12:54:09
1656932350387,    61.4,     2022-07-04,  12:59:10
1656932651310,    61.4,     2022-07-04,  13:04:11
1656941323404,    61.4,     2022-07-04,  15:28:43
1656941625004,    56.9,     2022-07-04,  15:33:45
1656942679722,    54.9,     2022-07-04,  15:51:19
1656942980642,    52.3,     2022-07-04,  15:56:20
1656945456825,    55.6,     2022-07-04,  16:37:36
1656967880055,    65.4,     2022-07-04,  22:51:20
1656968180891,    59.4,     2022-07-04,  22:56:20
1656968481770,    59.2,     2022-07-04,  23:01:21
1656968782641,    58.9,     2022-07-04,  23:06:22
1656969083471,    58.6,     2022-07-04,  23:11:23
1656969384391,    58.6,     2022-07-04,  23:16:24
1656969685304,    58.3,     2022-07-04,  23:21:25
1656969986142,    58.1,     2022-07-04,  23:26:26
1656970287011,    58.2,     2022-07-04,  23:31:27
1656970587911,    58.3,     2022-07-04,  23:36:27
1656970888797,    58.5,     2022-07-04,  23:41:28
1656971189720,    58.5,     2022-07-04,  23:46:29
1656971490581,    58.5,     2022-07-04,  23:51:30
1656971791445,    58.4,     2022-07-04,  23:56:31
1656972092310,    58.4,     2022-07-05,  00:01:32
1656972393211,    58.4,     2022-07-05,  00:06:33
1656972694133,    58.4,     2022-07-05,  00:11:34
1656972995056,    58.4,     2022-07-05,  00:16:35
1656973295978,    58.5,     2022-07-05,  00:21:35
1656973596901,    58.5,     2022-07-05,  00:26:36
1656973897823,    58.5,     2022-07-05,  00:31:37
1656974198746,    58.5,     2022-07-05,  00:36:38
1656974499668,    58.6,     2022-07-05,  00:41:39
1656974800492,    58.7,     2022-07-05,  00:46:40
1656975101354,    58.8,     2022-07-05,  00:51:41
1657051597554,    45.6,     2022-07-05,  22:06:37
1657052199328,    46.0,     2022-07-05,  22:16:39
1657052500228,    46.2,     2022-07-05,  22:21:40
1657052801150,    46.5,     2022-07-05,  22:26:41
1657053102028,    46.4,     2022-07-05,  22:31:42
1657053402951,    46.7,     2022-07-05,  22:36:42
1657053703873,    46.9,     2022-07-05,  22:41:43
1657226992908,    49.4,     2022-07-07,  22:49:52
1657227293831,    49.4,     2022-07-07,  22:54:53
1657227594710,    49.4,     2022-07-07,  22:59:54
1657227895631,    49.6,     2022-07-07,  23:04:55
1657228196521,    49.6,     2022-07-07,  23:09:56
1657228497391,    49.4,     2022-07-07,  23:14:57
1657228798221,    49.6,     2022-07-07,  23:19:58
1657229099144,    47.0,     2022-07-07,  23:24:59
1657229400066,    45.4,     2022-07-07,  23:30:00
1657230751786,    44.5,     2022-07-07,  23:52:31
1657231052702,    44.5,     2022-07-07,  23:57:32
1657231353624,    44.5,     2022-07-08,  00:02:33
1657231654511,    44.5,     2022-07-08,  00:07:34
1657231955428,    44.9,     2022-07-08,  00:12:35
1657232256351,    45.1,     2022-07-08,  00:17:36
1657232557231,    45.3,     2022-07-08,  00:22:37
1657232858145,    45.4,     2022-07-08,  00:27:38
1657233159067,    45.6,     2022-07-08,  00:32:39
1657233761506,    45.6,     2022-07-08,  00:42:41
1657234062346,    45.7,     2022-07-08,  00:47:42
1657234363238,    45.7,     2022-07-08,  00:52:43
1657234664104,    45.7,     2022-07-08,  00:57:44
1657234965026,    45.7,     2022-07-08,  01:02:45
1657235265948,    45.8,     2022-07-08,  01:07:45
1657235566870,    45.8,     2022-07-08,  01:12:46
1657235867793,    45.8,     2022-07-08,  01:17:47
1657236168715,    45.8,     2022-07-08,  01:22:48
1657236469638,    45.7,     2022-07-08,  01:27:49
1657236770560,    45.7,     2022-07-08,  01:32:50
1657237071476,    45.8,     2022-07-08,  01:37:51
1657237372398,    45.8,     2022-07-08,  01:42:52
1657237673320,    45.8,     2022-07-08,  01:47:53
1657237974159,    45.7,     2022-07-08,  01:52:54
1657238275081,    45.7,     2022-07-08,  01:57:55
1657238576004,    45.7,     2022-07-08,  02:02:56
1657256579869,    44.0,     2022-07-08,  07:02:59
1657256880751,    44.0,     2022-07-08,  07:08:00
1657257181628,    44.3,     2022-07-08,  07:13:01
1657257482528,    44.5,     2022-07-08,  07:18:02
1657257783450,    44.0,     2022-07-08,  07:23:03
1657258084292,    44.3,     2022-07-08,  07:28:04
1657258385215,    44.3,     2022-07-08,  07:33:05
1657258686137,    44.2,     2022-07-08,  07:38:06
1657258987060,    44.4,     2022-07-08,  07:43:07
1657259287982,    44.4,     2022-07-08,  07:48:07
1657259588905,    44.3,     2022-07-08,  07:53:08
1657259889827,    44.5,     2022-07-08,  07:58:09
1657260190749,    44.5,     2022-07-08,  08:03:10
1657260491631,    44.5,     2022-07-08,  08:08:11
1657260792531,    44.4,     2022-07-08,  08:13:12
1657261093454,    44.4,     2022-07-08,  08:18:13
1657261394351,    44.4,     2022-07-08,  08:23:14
1657261695274,    44.5,     2022-07-08,  08:28:15
1657261996196,    44.6,     2022-07-08,  08:33:16
1657262297071,    44.6,     2022-07-08,  08:38:17
1657262597994,    44.6,     2022-07-08,  08:43:17
1657262898916,    44.6,     2022-07-08,  08:48:18
1657263199791,    44.6,     2022-07-08,  08:53:19
1657263500714,    44.5,     2022-07-08,  08:58:20
1657263801636,    44.6,     2022-07-08,  09:03:21
1657264102511,    44.6,     2022-07-08,  09:08:22
1657292277866,    44.0,     2022-07-08,  16:57:57
1657292578696,    43.9,     2022-07-08,  17:02:58
1657292879619,    43.9,     2022-07-08,  17:07:59
1657293180496,    44.1,     2022-07-08,  17:13:00
1657293481391,    44.2,     2022-07-08,  17:18:01
1657293782314,    44.2,     2022-07-08,  17:23:02
1657393018666,    45.0,     2022-07-09,  20:56:58
1657393319589,    44.9,     2022-07-09,  21:01:59
1657393620431,    45.1,     2022-07-09,  21:07:00
1657393921327,    45.8,     2022-07-09,  21:12:01
1657468004205,    46.9,     2022-07-10,  17:46:44
1657468305129,    42.2,     2022-07-10,  17:51:45
1657468605971,    41.6,     2022-07-10,  17:56:45
1657468906892,    41.6,     2022-07-10,  18:01:46
1657469207814,    41.5,     2022-07-10,  18:06:47
1657469508660,    41.6,     2022-07-10,  18:11:48
1657469810296,    41.7,     2022-07-10,  18:16:50
1657471271496,    44.6,     2022-07-10,  18:41:11
1657471572384,    44.6,     2022-07-10,  18:46:12
1657471873236,    44.6,     2022-07-10,  18:51:13
1657472174158,    44.4,     2022-07-10,  18:56:14
1657472475081,    44.1,     2022-07-10,  19:01:15
1657472775941,    44.1,     2022-07-10,  19:06:15
1657473076864,    44.6,     2022-07-10,  19:11:16
1657473377741,    44.1,     2022-07-10,  19:16:17
1657473678664,    44.3,     2022-07-10,  19:21:18
1657473979586,    43.8,     2022-07-10,  19:26:19
1657474280467,    43.8,     2022-07-10,  19:31:20
1657474581389,    43.7,     2022-07-10,  19:36:21
1657474882275,    44.1,     2022-07-10,  19:41:22
1657475183146,    44.0,     2022-07-10,  19:46:23
1657475484068,    43.8,     2022-07-10,  19:51:24
1657475784990,    43.6,     2022-07-10,  19:56:24
1657476085853,    43.5,     2022-07-10,  20:01:25
1657518245643,    43.8,     2022-07-11,  07:44:05
1657518546515,    43.7,     2022-07-11,  07:49:06
1657531987864,    47.3,     2022-07-11,  11:33:07
1657532786261,    44.4,     2022-07-11,  11:46:26
1657533087184,    43.2,     2022-07-11,  11:51:27
1657533388106,    43.1,     2022-07-11,  11:56:28
1657533688983,    41.9,     2022-07-11,  12:01:28
