Rechnung_23003;Auftrag_A003;Zürich;21.03.2023;10:22:54;ZahlungszielInTagen_30
Herkunft;41010000001234567;K821;Adam Adler;Bahnhofstrasse 1;8000 Zuerich;CHE-111.222.333 MWST;harald.mueller@tbz.ch
Endkunde;41301000000012497;Autoleasing AG;Gewerbestrasse 100;5000 Aarau
RechnPos;1;Einrichten E-Mailclients;6;25.00;150.00;MWST_0.00%
RechnPos;2;Konfig & Schulung Scanningcenter;1;1200.00;1200.00;MWST_0.00%
